{
  "common": {
    "server_name": "psKeaBeta1",
    "docker_userid": "aboobakersiddiqr",
    "docker_repo": "jenkins-nodejs",
    "WORKSPACE": "",
    "memory_limit_allowed": "YES",
    "host_addr_log": "/home/ubuntu/apps/logs/",
    "try_me_validation_url": "http://10.0.5.124:9712/ps-kea-nlp/validateTryMeQuestions",
    "enable_try_me": "YES",
    "enable_sonar_cube_analysis": "NO"
  },
  "jenkins-poc": {
    "git_url": "https://gitlab.com/AboobakerSiddiq/jenkins-poc.git"
  }
}
